^D:\PROJECTS\COLLISION-PROGRAM\COLLISIONSAMPLE\SQUARE.CPP
D:\PROJECTS\COLLISION-PROGRAM\COLLISIONSAMPLE\SQUARE.H
D:\PROJECTS\COLLISION-PROGRAM\DEPS\INCLUDE\GL\GLEW.H
C:\PROGRAM FILES (X86)\WINDOWS KITS\8.1\INCLUDE\UM\GL\GLU.H
C:\PROGRAM FILES (X86)\WINDOWS KITS\8.1\INCLUDE\SHARED\WINAPIFAMILY.H
C:\PROGRAM FILES (X86)\WINDOWS KITS\8.1\INCLUDE\UM\GL\GL.H
D:\PROJECTS\COLLISION-PROGRAM\COLLISIONSAMPLE\BASICSHAPE.H
C:\CLASSIFIED FILES\VISUALSTUDIO\VC\INCLUDE\IOSTREAM
C:\CLASSIFIED FILES\VISUALSTUDIO\VC\INCLUDE\ISTREAM
C:\CLASSIFIED FILES\VISUALSTUDIO\VC\INCLUDE\OSTREAM
C:\CLASSIFIED FILES\VISUALSTUDIO\VC\INCLUDE\IOS
C:\CLASSIFIED FILES\VISUALSTUDIO\VC\INCLUDE\XLOCNUM
C:\CLASSIFIED FILES\VISUALSTUDIO\VC\INCLUDE\CLIMITS
C:\CLASSIFIED FILES\VISUALSTUDIO\VC\INCLUDE\YVALS.H
C:\CLASSIFIED FILES\VISUALSTUDIO\VC\INCLUDE\XKEYCHECK.H
C:\CLASSIFIED FILES\VISUALSTUDIO\VC\INCLUDE\CRTDEFS.H
C:\CLASSIFIED FILES\VISUALSTUDIO\VC\INCLUDE\SAL.H
C:\CLASSIFIED FILES\VISUALSTUDIO\VC\INCLUDE\CONCURRENCYSAL.H
C:\CLASSIFIED FILES\VISUALSTUDIO\VC\INCLUDE\VADEFS.H
C:\CLASSIFIED FILES\VISUALSTUDIO\VC\INCLUDE\USE_ANSI.H
C:\CLASSIFIED FILES\VISUALSTUDIO\VC\INCLUDE\LIMITS.H
C:\CLASSIFIED FILES\VISUALSTUDIO\VC\INCLUDE\CMATH
C:\CLASSIFIED FILES\VISUALSTUDIO\VC\INCLUDE\MATH.H
C:\CLASSIFIED FILES\VISUALSTUDIO\VC\INCLUDE\XTGMATH.H
C:\CLASSIFIED FILES\VISUALSTUDIO\VC\INCLUDE\XTR1COMMON
C:\CLASSIFIED FILES\VISUALSTUDIO\VC\INCLUDE\CSTDIO
C:\CLASSIFIED FILES\VISUALSTUDIO\VC\INCLUDE\STDIO.H
C:\CLASSIFIED FILES\VISUALSTUDIO\VC\INCLUDE\SWPRINTF.INL
C:\CLASSIFIED FILES\VISUALSTUDIO\VC\INCLUDE\CSTDLIB
C:\CLASSIFIED FILES\VISUALSTUDIO\VC\INCLUDE\STDLIB.H
C:\CLASSIFIED FILES\VISUALSTUDIO\VC\INCLUDE\STREAMBUF
C:\CLASSIFIED FILES\VISUALSTUDIO\VC\INCLUDE\XIOSBASE
C:\CLASSIFIED FILES\VISUALSTUDIO\VC\INCLUDE\XLOCALE
C:\CLASSIFIED FILES\VISUALSTUDIO\VC\INCLUDE\CSTRING
C:\CLASSIFIED FILES\VISUALSTUDIO\VC\INCLUDE\STRING.H
C:\CLASSIFIED FILES\VISUALSTUDIO\VC\INCLUDE\STDEXCEPT
C:\CLASSIFIED FILES\VISUALSTUDIO\VC\INCLUDE\EXCEPTION
C:\CLASSIFIED FILES\VISUALSTUDIO\VC\INCLUDE\XSTDDEF
C:\CLASSIFIED FILES\VISUALSTUDIO\VC\INCLUDE\CSTDDEF
C:\CLASSIFIED FILES\VISUALSTUDIO\VC\INCLUDE\STDDEF.H
C:\CLASSIFIED FILES\VISUALSTUDIO\VC\INCLUDE\INITIALIZER_LIST
C:\CLASSIFIED FILES\VISUALSTUDIO\VC\INCLUDE\EH.H
C:\CLASSIFIED FILES\VISUALSTUDIO\VC\INCLUDE\MALLOC.H
C:\CLASSIFIED FILES\VISUALSTUDIO\VC\INCLUDE\XSTRING
C:\CLASSIFIED FILES\VISUALSTUDIO\VC\INCLUDE\XMEMORY0
C:\CLASSIFIED FILES\VISUALSTUDIO\VC\INCLUDE\LIMITS
C:\CLASSIFIED FILES\VISUALSTUDIO\VC\INCLUDE\YMATH.H
C:\CLASSIFIED FILES\VISUALSTUDIO\VC\INCLUDE\CFLOAT
C:\CLASSIFIED FILES\VISUALSTUDIO\VC\INCLUDE\FLOAT.H
C:\CLASSIFIED FILES\VISUALSTUDIO\VC\INCLUDE\CRTWRN.H
C:\CLASSIFIED FILES\VISUALSTUDIO\VC\INCLUDE\CWCHAR
C:\CLASSIFIED FILES\VISUALSTUDIO\VC\INCLUDE\WCHAR.H
C:\CLASSIFIED FILES\VISUALSTUDIO\VC\INCLUDE\WTIME.INL
C:\CLASSIFIED FILES\VISUALSTUDIO\VC\INCLUDE\NEW
C:\CLASSIFIED FILES\VISUALSTUDIO\VC\INCLUDE\XUTILITY
C:\CLASSIFIED FILES\VISUALSTUDIO\VC\INCLUDE\UTILITY
C:\CLASSIFIED FILES\VISUALSTUDIO\VC\INCLUDE\IOSFWD
C:\CLASSIFIED FILES\VISUALSTUDIO\VC\INCLUDE\CRTDBG.H
C:\CLASSIFIED FILES\VISUALSTUDIO\VC\INCLUDE\TYPE_TRAITS
C:\CLASSIFIED FILES\VISUALSTUDIO\VC\INCLUDE\XREFWRAP
C:\CLASSIFIED FILES\VISUALSTUDIO\VC\INCLUDE\XATOMIC0.H
C:\CLASSIFIED FILES\VISUALSTUDIO\VC\INCLUDE\INTRIN.H
C:\CLASSIFIED FILES\VISUALSTUDIO\VC\INCLUDE\SETJMP.H
C:\CLASSIFIED FILES\VISUALSTUDIO\VC\INCLUDE\IMMINTRIN.H
C:\CLASSIFIED FILES\VISUALSTUDIO\VC\INCLUDE\WMMINTRIN.H
C:\CLASSIFIED FILES\VISUALSTUDIO\VC\INCLUDE\NMMINTRIN.H
C:\CLASSIFIED FILES\VISUALSTUDIO\VC\INCLUDE\SMMINTRIN.H
C:\CLASSIFIED FILES\VISUALSTUDIO\VC\INCLUDE\TMMINTRIN.H
C:\CLASSIFIED FILES\VISUALSTUDIO\VC\INCLUDE\PMMINTRIN.H
C:\CLASSIFIED FILES\VISUALSTUDIO\VC\INCLUDE\EMMINTRIN.H
C:\CLASSIFIED FILES\VISUALSTUDIO\VC\INCLUDE\XMMINTRIN.H
C:\CLASSIFIED FILES\VISUALSTUDIO\VC\INCLUDE\MMINTRIN.H
C:\CLASSIFIED FILES\VISUALSTUDIO\VC\INCLUDE\AMMINTRIN.H
C:\CLASSIFIED FILES\VISUALSTUDIO\VC\INCLUDE\MM3DNOW.H
C:\CLASSIFIED FILES\VISUALSTUDIO\VC\INCLUDE\TYPEINFO
C:\CLASSIFIED FILES\VISUALSTUDIO\VC\INCLUDE\XLOCINFO
C:\CLASSIFIED FILES\VISUALSTUDIO\VC\INCLUDE\XLOCINFO.H
C:\CLASSIFIED FILES\VISUALSTUDIO\VC\INCLUDE\CTYPE.H
C:\CLASSIFIED FILES\VISUALSTUDIO\VC\INCLUDE\LOCALE.H
C:\CLASSIFIED FILES\VISUALSTUDIO\VC\INCLUDE\XDEBUG
C:\CLASSIFIED FILES\VISUALSTUDIO\VC\INCLUDE\XMEMORY
C:\CLASSIFIED FILES\VISUALSTUDIO\VC\INCLUDE\XFACET
C:\CLASSIFIED FILES\VISUALSTUDIO\VC\INCLUDE\SYSTEM_ERROR
C:\CLASSIFIED FILES\VISUALSTUDIO\VC\INCLUDE\CERRNO
C:\CLASSIFIED FILES\VISUALSTUDIO\VC\INCLUDE\ERRNO.H
C:\CLASSIFIED FILES\VISUALSTUDIO\VC\INCLUDE\SHARE.H
D:\PROJECTS\COLLISION-PROGRAM\COLLISIONSAMPLE\VERTEX.H
D:\PROJECTS\COLLISION-PROGRAM\COLLISIONSAMPLE\SQUAREBASE.H
C:\CLASSIFIED FILES\VISUALSTUDIO\VC\INCLUDE\VECTOR
D:\PROJECTS\COLLISION-PROGRAM\DEPS\INCLUDE\SDL\SDL.H
D:\PROJECTS\COLLISION-PROGRAM\DEPS\INCLUDE\SDL\SDL_MAIN.H
D:\PROJECTS\COLLISION-PROGRAM\DEPS\INCLUDE\SDL\SDL_STDINC.H
D:\PROJECTS\COLLISION-PROGRAM\DEPS\INCLUDE\SDL\SDL_CONFIG.H
D:\PROJECTS\COLLISION-PROGRAM\DEPS\INCLUDE\SDL\SDL_PLATFORM.H
D:\PROJECTS\COLLISION-PROGRAM\DEPS\INCLUDE\SDL\BEGIN_CODE.H
D:\PROJECTS\COLLISION-PROGRAM\DEPS\INCLUDE\SDL\CLOSE_CODE.H
C:\CLASSIFIED FILES\VISUALSTUDIO\VC\INCLUDE\STDARG.H
D:\PROJECTS\COLLISION-PROGRAM\DEPS\INCLUDE\SDL\SDL_ASSERT.H
D:\PROJECTS\COLLISION-PROGRAM\DEPS\INCLUDE\SDL\SDL_ATOMIC.H
D:\PROJECTS\COLLISION-PROGRAM\DEPS\INCLUDE\SDL\SDL_AUDIO.H
D:\PROJECTS\COLLISION-PROGRAM\DEPS\INCLUDE\SDL\SDL_ERROR.H
D:\PROJECTS\COLLISION-PROGRAM\DEPS\INCLUDE\SDL\SDL_ENDIAN.H
D:\PROJECTS\COLLISION-PROGRAM\DEPS\INCLUDE\SDL\SDL_MUTEX.H
D:\PROJECTS\COLLISION-PROGRAM\DEPS\INCLUDE\SDL\SDL_THREAD.H
C:\CLASSIFIED FILES\VISUALSTUDIO\VC\INCLUDE\PROCESS.H
D:\PROJECTS\COLLISION-PROGRAM\DEPS\INCLUDE\SDL\SDL_RWOPS.H
D:\PROJECTS\COLLISION-PROGRAM\DEPS\INCLUDE\SDL\SDL_CLIPBOARD.H
D:\PROJECTS\COLLISION-PROGRAM\DEPS\INCLUDE\SDL\SDL_CPUINFO.H
D:\PROJECTS\COLLISION-PROGRAM\DEPS\INCLUDE\SDL\SDL_EVENTS.H
D:\PROJECTS\COLLISION-PROGRAM\DEPS\INCLUDE\SDL\SDL_VIDEO.H
D:\PROJECTS\COLLISION-PROGRAM\DEPS\INCLUDE\SDL\SDL_PIXELS.H
D:\PROJECTS\COLLISION-PROGRAM\DEPS\INCLUDE\SDL\SDL_RECT.H
D:\PROJECTS\COLLISION-PROGRAM\DEPS\INCLUDE\SDL\SDL_SURFACE.H
D:\PROJECTS\COLLISION-PROGRAM\DEPS\INCLUDE\SDL\SDL_BLENDMODE.H
D:\PROJECTS\COLLISION-PROGRAM\DEPS\INCLUDE\SDL\SDL_KEYBOARD.H
D:\PROJECTS\COLLISION-PROGRAM\DEPS\INCLUDE\SDL\SDL_KEYCODE.H
D:\PROJECTS\COLLISION-PROGRAM\DEPS\INCLUDE\SDL\SDL_SCANCODE.H
D:\PROJECTS\COLLISION-PROGRAM\DEPS\INCLUDE\SDL\SDL_MOUSE.H
D:\PROJECTS\COLLISION-PROGRAM\DEPS\INCLUDE\SDL\SDL_JOYSTICK.H
D:\PROJECTS\COLLISION-PROGRAM\DEPS\INCLUDE\SDL\SDL_GAMECONTROLLER.H
D:\PROJECTS\COLLISION-PROGRAM\DEPS\INCLUDE\SDL\SDL_QUIT.H
D:\PROJECTS\COLLISION-PROGRAM\DEPS\INCLUDE\SDL\SDL_GESTURE.H
D:\PROJECTS\COLLISION-PROGRAM\DEPS\INCLUDE\SDL\SDL_TOUCH.H
D:\PROJECTS\COLLISION-PROGRAM\DEPS\INCLUDE\SDL\SDL_FILESYSTEM.H
D:\PROJECTS\COLLISION-PROGRAM\DEPS\INCLUDE\SDL\SDL_HAPTIC.H
D:\PROJECTS\COLLISION-PROGRAM\DEPS\INCLUDE\SDL\SDL_HINTS.H
D:\PROJECTS\COLLISION-PROGRAM\DEPS\INCLUDE\SDL\SDL_LOADSO.H
D:\PROJECTS\COLLISION-PROGRAM\DEPS\INCLUDE\SDL\SDL_LOG.H
D:\PROJECTS\COLLISION-PROGRAM\DEPS\INCLUDE\SDL\SDL_MESSAGEBOX.H
D:\PROJECTS\COLLISION-PROGRAM\DEPS\INCLUDE\SDL\SDL_POWER.H
D:\PROJECTS\COLLISION-PROGRAM\DEPS\INCLUDE\SDL\SDL_RENDER.H
D:\PROJECTS\COLLISION-PROGRAM\DEPS\INCLUDE\SDL\SDL_SYSTEM.H
D:\PROJECTS\COLLISION-PROGRAM\DEPS\INCLUDE\SDL\SDL_TIMER.H
D:\PROJECTS\COLLISION-PROGRAM\DEPS\INCLUDE\SDL\SDL_VERSION.H
C:\CLASSIFIED FILES\VISUALSTUDIO\VC\BIN\1033\CLUI.DLL
C:\WINDOWS\GLOBALIZATION\SORTING\SORTDEFAULT.NLS
C:\WINDOWS\SYSTEM32\TZRES.DLL
^D:\PROJECTS\COLLISION-PROGRAM\COLLISIONSAMPLE\RENDERER.CPP
D:\PROJECTS\COLLISION-PROGRAM\COLLISIONSAMPLE\RENDERER.H
D:\PROJECTS\COLLISION-PROGRAM\COLLISIONSAMPLE\FATALERROR.H
C:\CLASSIFIED FILES\VISUALSTUDIO\VC\INCLUDE\STRING
C:\CLASSIFIED FILES\VISUALSTUDIO\VC\INCLUDE\ITERATOR
C:\CLASSIFIED FILES\VISUALSTUDIO\VC\INCLUDE\ISTREAM
C:\CLASSIFIED FILES\VISUALSTUDIO\VC\INCLUDE\OSTREAM
C:\CLASSIFIED FILES\VISUALSTUDIO\VC\INCLUDE\IOS
C:\CLASSIFIED FILES\VISUALSTUDIO\VC\INCLUDE\XLOCNUM
C:\CLASSIFIED FILES\VISUALSTUDIO\VC\INCLUDE\CLIMITS
C:\CLASSIFIED FILES\VISUALSTUDIO\VC\INCLUDE\YVALS.H
C:\CLASSIFIED FILES\VISUALSTUDIO\VC\INCLUDE\XKEYCHECK.H
C:\CLASSIFIED FILES\VISUALSTUDIO\VC\INCLUDE\CRTDEFS.H
C:\CLASSIFIED FILES\VISUALSTUDIO\VC\INCLUDE\SAL.H
C:\CLASSIFIED FILES\VISUALSTUDIO\VC\INCLUDE\CONCURRENCYSAL.H
C:\CLASSIFIED FILES\VISUALSTUDIO\VC\INCLUDE\VADEFS.H
C:\CLASSIFIED FILES\VISUALSTUDIO\VC\INCLUDE\USE_ANSI.H
C:\CLASSIFIED FILES\VISUALSTUDIO\VC\INCLUDE\LIMITS.H
C:\CLASSIFIED FILES\VISUALSTUDIO\VC\INCLUDE\CMATH
C:\CLASSIFIED FILES\VISUALSTUDIO\VC\INCLUDE\MATH.H
C:\CLASSIFIED FILES\VISUALSTUDIO\VC\INCLUDE\XTGMATH.H
C:\CLASSIFIED FILES\VISUALSTUDIO\VC\INCLUDE\XTR1COMMON
C:\CLASSIFIED FILES\VISUALSTUDIO\VC\INCLUDE\CSTDIO
C:\CLASSIFIED FILES\VISUALSTUDIO\VC\INCLUDE\STDIO.H
C:\CLASSIFIED FILES\VISUALSTUDIO\VC\INCLUDE\SWPRINTF.INL
C:\CLASSIFIED FILES\VISUALSTUDIO\VC\INCLUDE\CSTDLIB
C:\CLASSIFIED FILES\VISUALSTUDIO\VC\INCLUDE\STDLIB.H
C:\CLASSIFIED FILES\VISUALSTUDIO\VC\INCLUDE\STREAMBUF
C:\CLASSIFIED FILES\VISUALSTUDIO\VC\INCLUDE\XIOSBASE
C:\CLASSIFIED FILES\VISUALSTUDIO\VC\INCLUDE\XLOCALE
C:\CLASSIFIED FILES\VISUALSTUDIO\VC\INCLUDE\CSTRING
C:\CLASSIFIED FILES\VISUALSTUDIO\VC\INCLUDE\STRING.H
C:\CLASSIFIED FILES\VISUALSTUDIO\VC\INCLUDE\STDEXCEPT
C:\CLASSIFIED FILES\VISUALSTUDIO\VC\INCLUDE\EXCEPTION
C:\CLASSIFIED FILES\VISUALSTUDIO\VC\INCLUDE\XSTDDEF
C:\CLASSIFIED FILES\VISUALSTUDIO\VC\INCLUDE\CSTDDEF
C:\CLASSIFIED FILES\VISUALSTUDIO\VC\INCLUDE\STDDEF.H
C:\CLASSIFIED FILES\VISUALSTUDIO\VC\INCLUDE\INITIALIZER_LIST
C:\CLASSIFIED FILES\VISUALSTUDIO\VC\INCLUDE\EH.H
C:\CLASSIFIED FILES\VISUALSTUDIO\VC\INCLUDE\MALLOC.H
C:\CLASSIFIED FILES\VISUALSTUDIO\VC\INCLUDE\XSTRING
C:\CLASSIFIED FILES\VISUALSTUDIO\VC\INCLUDE\XMEMORY0
C:\CLASSIFIED FILES\VISUALSTUDIO\VC\INCLUDE\LIMITS
C:\CLASSIFIED FILES\VISUALSTUDIO\VC\INCLUDE\YMATH.H
C:\CLASSIFIED FILES\VISUALSTUDIO\VC\INCLUDE\CFLOAT
C:\CLASSIFIED FILES\VISUALSTUDIO\VC\INCLUDE\FLOAT.H
C:\CLASSIFIED FILES\VISUALSTUDIO\VC\INCLUDE\CRTWRN.H
C:\CLASSIFIED FILES\VISUALSTUDIO\VC\INCLUDE\CWCHAR
C:\CLASSIFIED FILES\VISUALSTUDIO\VC\INCLUDE\WCHAR.H
C:\CLASSIFIED FILES\VISUALSTUDIO\VC\INCLUDE\WTIME.INL
C:\CLASSIFIED FILES\VISUALSTUDIO\VC\INCLUDE\NEW
C:\CLASSIFIED FILES\VISUALSTUDIO\VC\INCLUDE\XUTILITY
C:\CLASSIFIED FILES\VISUALSTUDIO\VC\INCLUDE\UTILITY
C:\CLASSIFIED FILES\VISUALSTUDIO\VC\INCLUDE\IOSFWD
C:\CLASSIFIED FILES\VISUALSTUDIO\VC\INCLUDE\CRTDBG.H
C:\CLASSIFIED FILES\VISUALSTUDIO\VC\INCLUDE\TYPE_TRAITS
C:\CLASSIFIED FILES\VISUALSTUDIO\VC\INCLUDE\XREFWRAP
C:\CLASSIFIED FILES\VISUALSTUDIO\VC\INCLUDE\XATOMIC0.H
C:\CLASSIFIED FILES\VISUALSTUDIO\VC\INCLUDE\INTRIN.H
C:\CLASSIFIED FILES\VISUALSTUDIO\VC\INCLUDE\SETJMP.H
C:\CLASSIFIED FILES\VISUALSTUDIO\VC\INCLUDE\IMMINTRIN.H
C:\CLASSIFIED FILES\VISUALSTUDIO\VC\INCLUDE\WMMINTRIN.H
C:\CLASSIFIED FILES\VISUALSTUDIO\VC\INCLUDE\NMMINTRIN.H
C:\CLASSIFIED FILES\VISUALSTUDIO\VC\INCLUDE\SMMINTRIN.H
C:\CLASSIFIED FILES\VISUALSTUDIO\VC\INCLUDE\TMMINTRIN.H
C:\CLASSIFIED FILES\VISUALSTUDIO\VC\INCLUDE\PMMINTRIN.H
C:\CLASSIFIED FILES\VISUALSTUDIO\VC\INCLUDE\EMMINTRIN.H
C:\CLASSIFIED FILES\VISUALSTUDIO\VC\INCLUDE\XMMINTRIN.H
C:\CLASSIFIED FILES\VISUALSTUDIO\VC\INCLUDE\MMINTRIN.H
C:\CLASSIFIED FILES\VISUALSTUDIO\VC\INCLUDE\AMMINTRIN.H
C:\CLASSIFIED FILES\VISUALSTUDIO\VC\INCLUDE\MM3DNOW.H
C:\CLASSIFIED FILES\VISUALSTUDIO\VC\INCLUDE\TYPEINFO
C:\CLASSIFIED FILES\VISUALSTUDIO\VC\INCLUDE\XLOCINFO
C:\CLASSIFIED FILES\VISUALSTUDIO\VC\INCLUDE\XLOCINFO.H
C:\CLASSIFIED FILES\VISUALSTUDIO\VC\INCLUDE\CTYPE.H
C:\CLASSIFIED FILES\VISUALSTUDIO\VC\INCLUDE\LOCALE.H
C:\CLASSIFIED FILES\VISUALSTUDIO\VC\INCLUDE\XDEBUG
C:\CLASSIFIED FILES\VISUALSTUDIO\VC\INCLUDE\XMEMORY
C:\CLASSIFIED FILES\VISUALSTUDIO\VC\INCLUDE\XFACET
C:\CLASSIFIED FILES\VISUALSTUDIO\VC\INCLUDE\SYSTEM_ERROR
C:\CLASSIFIED FILES\VISUALSTUDIO\VC\INCLUDE\CERRNO
C:\CLASSIFIED FILES\VISUALSTUDIO\VC\INCLUDE\ERRNO.H
C:\CLASSIFIED FILES\VISUALSTUDIO\VC\INCLUDE\SHARE.H
C:\CLASSIFIED FILES\VISUALSTUDIO\VC\INCLUDE\IOSTREAM
D:\PROJECTS\COLLISION-PROGRAM\DEPS\INCLUDE\SDL\SDL.H
D:\PROJECTS\COLLISION-PROGRAM\DEPS\INCLUDE\SDL\SDL_MAIN.H
D:\PROJECTS\COLLISION-PROGRAM\DEPS\INCLUDE\SDL\SDL_STDINC.H
D:\PROJECTS\COLLISION-PROGRAM\DEPS\INCLUDE\SDL\SDL_CONFIG.H
D:\PROJECTS\COLLISION-PROGRAM\DEPS\INCLUDE\SDL\SDL_PLATFORM.H
C:\PROGRAM FILES (X86)\WINDOWS KITS\8.1\INCLUDE\SHARED\WINAPIFAMILY.H
D:\PROJECTS\COLLISION-PROGRAM\DEPS\INCLUDE\SDL\BEGIN_CODE.H
D:\PROJECTS\COLLISION-PROGRAM\DEPS\INCLUDE\SDL\CLOSE_CODE.H
C:\CLASSIFIED FILES\VISUALSTUDIO\VC\INCLUDE\STDARG.H
D:\PROJECTS\COLLISION-PROGRAM\DEPS\INCLUDE\SDL\SDL_ASSERT.H
D:\PROJECTS\COLLISION-PROGRAM\DEPS\INCLUDE\SDL\SDL_ATOMIC.H
D:\PROJECTS\COLLISION-PROGRAM\DEPS\INCLUDE\SDL\SDL_AUDIO.H
D:\PROJECTS\COLLISION-PROGRAM\DEPS\INCLUDE\SDL\SDL_ERROR.H
D:\PROJECTS\COLLISION-PROGRAM\DEPS\INCLUDE\SDL\SDL_ENDIAN.H
D:\PROJECTS\COLLISION-PROGRAM\DEPS\INCLUDE\SDL\SDL_MUTEX.H
D:\PROJECTS\COLLISION-PROGRAM\DEPS\INCLUDE\SDL\SDL_THREAD.H
C:\CLASSIFIED FILES\VISUALSTUDIO\VC\INCLUDE\PROCESS.H
D:\PROJECTS\COLLISION-PROGRAM\DEPS\INCLUDE\SDL\SDL_RWOPS.H
D:\PROJECTS\COLLISION-PROGRAM\DEPS\INCLUDE\SDL\SDL_CLIPBOARD.H
D:\PROJECTS\COLLISION-PROGRAM\DEPS\INCLUDE\SDL\SDL_CPUINFO.H
D:\PROJECTS\COLLISION-PROGRAM\DEPS\INCLUDE\SDL\SDL_EVENTS.H
D:\PROJECTS\COLLISION-PROGRAM\DEPS\INCLUDE\SDL\SDL_VIDEO.H
D:\PROJECTS\COLLISION-PROGRAM\DEPS\INCLUDE\SDL\SDL_PIXELS.H
D:\PROJECTS\COLLISION-PROGRAM\DEPS\INCLUDE\SDL\SDL_RECT.H
D:\PROJECTS\COLLISION-PROGRAM\DEPS\INCLUDE\SDL\SDL_SURFACE.H
D:\PROJECTS\COLLISION-PROGRAM\DEPS\INCLUDE\SDL\SDL_BLENDMODE.H
D:\PROJECTS\COLLISION-PROGRAM\DEPS\INCLUDE\SDL\SDL_KEYBOARD.H
D:\PROJECTS\COLLISION-PROGRAM\DEPS\INCLUDE\SDL\SDL_KEYCODE.H
D:\PROJECTS\COLLISION-PROGRAM\DEPS\INCLUDE\SDL\SDL_SCANCODE.H
D:\PROJECTS\COLLISION-PROGRAM\DEPS\INCLUDE\SDL\SDL_MOUSE.H
D:\PROJECTS\COLLISION-PROGRAM\DEPS\INCLUDE\SDL\SDL_JOYSTICK.H
D:\PROJECTS\COLLISION-PROGRAM\DEPS\INCLUDE\SDL\SDL_GAMECONTROLLER.H
D:\PROJECTS\COLLISION-PROGRAM\DEPS\INCLUDE\SDL\SDL_QUIT.H
D:\PROJECTS\COLLISION-PROGRAM\DEPS\INCLUDE\SDL\SDL_GESTURE.H
D:\PROJECTS\COLLISION-PROGRAM\DEPS\INCLUDE\SDL\SDL_TOUCH.H
D:\PROJECTS\COLLISION-PROGRAM\DEPS\INCLUDE\SDL\SDL_FILESYSTEM.H
D:\PROJECTS\COLLISION-PROGRAM\DEPS\INCLUDE\SDL\SDL_HAPTIC.H
D:\PROJECTS\COLLISION-PROGRAM\DEPS\INCLUDE\SDL\SDL_HINTS.H
D:\PROJECTS\COLLISION-PROGRAM\DEPS\INCLUDE\SDL\SDL_LOADSO.H
D:\PROJECTS\COLLISION-PROGRAM\DEPS\INCLUDE\SDL\SDL_LOG.H
D:\PROJECTS\COLLISION-PROGRAM\DEPS\INCLUDE\SDL\SDL_MESSAGEBOX.H
D:\PROJECTS\COLLISION-PROGRAM\DEPS\INCLUDE\SDL\SDL_POWER.H
D:\PROJECTS\COLLISION-PROGRAM\DEPS\INCLUDE\SDL\SDL_RENDER.H
D:\PROJECTS\COLLISION-PROGRAM\DEPS\INCLUDE\SDL\SDL_SYSTEM.H
D:\PROJECTS\COLLISION-PROGRAM\DEPS\INCLUDE\SDL\SDL_TIMER.H
D:\PROJECTS\COLLISION-PROGRAM\DEPS\INCLUDE\SDL\SDL_VERSION.H
C:\CLASSIFIED FILES\VISUALSTUDIO\VC\INCLUDE\VECTOR
D:\PROJECTS\COLLISION-PROGRAM\DEPS\INCLUDE\GL\GLEW.H
C:\PROGRAM FILES (X86)\WINDOWS KITS\8.1\INCLUDE\UM\GL\GLU.H
C:\PROGRAM FILES (X86)\WINDOWS KITS\8.1\INCLUDE\UM\GL\GL.H
D:\PROJECTS\COLLISION-PROGRAM\COLLISIONSAMPLE\GLSLPROGRAM.H
C:\CLASSIFIED FILES\VISUALSTUDIO\VC\INCLUDE\FSTREAM
D:\PROJECTS\COLLISION-PROGRAM\COLLISIONSAMPLE\BASICSHAPE.H
D:\PROJECTS\COLLISION-PROGRAM\COLLISIONSAMPLE\VERTEX.H
D:\PROJECTS\COLLISION-PROGRAM\COLLISIONSAMPLE\CIRCLE.H
D:\PROJECTS\COLLISION-PROGRAM\COLLISIONSAMPLE\SQUARE.H
D:\PROJECTS\COLLISION-PROGRAM\COLLISIONSAMPLE\CIRCLEBASE.H
D:\PROJECTS\COLLISION-PROGRAM\COLLISIONSAMPLE\SQUAREBASE.H
C:\CLASSIFIED FILES\VISUALSTUDIO\VC\BIN\1033\CLUI.DLL
C:\WINDOWS\GLOBALIZATION\SORTING\SORTDEFAULT.NLS
C:\CLASSIFIED FILES\VISUALSTUDIO\VC\BIN\MSPDBSRV.EXE
C:\WINDOWS\SYSTEM32\TZRES.DLL
^D:\PROJECTS\COLLISION-PROGRAM\COLLISIONSAMPLE\MAIN.CPP
D:\PROJECTS\COLLISION-PROGRAM\COLLISIONSAMPLE\IOMANAGER.H
^D:\PROJECTS\COLLISION-PROGRAM\COLLISIONSAMPLE\IOMANAGER.CPP
D:\PROJECTS\COLLISION-PROGRAM\COLLISIONSAMPLE\IOMANAGER.H
D:\PROJECTS\COLLISION-PROGRAM\COLLISIONSAMPLE\RENDERER.H
D:\PROJECTS\COLLISION-PROGRAM\COLLISIONSAMPLE\FATALERROR.H
C:\CLASSIFIED FILES\VISUALSTUDIO\VC\INCLUDE\STRING
C:\CLASSIFIED FILES\VISUALSTUDIO\VC\INCLUDE\ITERATOR
C:\CLASSIFIED FILES\VISUALSTUDIO\VC\INCLUDE\ISTREAM
C:\CLASSIFIED FILES\VISUALSTUDIO\VC\INCLUDE\OSTREAM
C:\CLASSIFIED FILES\VISUALSTUDIO\VC\INCLUDE\IOS
C:\CLASSIFIED FILES\VISUALSTUDIO\VC\INCLUDE\XLOCNUM
C:\CLASSIFIED FILES\VISUALSTUDIO\VC\INCLUDE\CLIMITS
C:\CLASSIFIED FILES\VISUALSTUDIO\VC\INCLUDE\YVALS.H
C:\CLASSIFIED FILES\VISUALSTUDIO\VC\INCLUDE\XKEYCHECK.H
C:\CLASSIFIED FILES\VISUALSTUDIO\VC\INCLUDE\CRTDEFS.H
C:\CLASSIFIED FILES\VISUALSTUDIO\VC\INCLUDE\SAL.H
C:\CLASSIFIED FILES\VISUALSTUDIO\VC\INCLUDE\CONCURRENCYSAL.H
C:\CLASSIFIED FILES\VISUALSTUDIO\VC\INCLUDE\VADEFS.H
C:\CLASSIFIED FILES\VISUALSTUDIO\VC\INCLUDE\USE_ANSI.H
C:\CLASSIFIED FILES\VISUALSTUDIO\VC\INCLUDE\LIMITS.H
C:\CLASSIFIED FILES\VISUALSTUDIO\VC\INCLUDE\CMATH
C:\CLASSIFIED FILES\VISUALSTUDIO\VC\INCLUDE\MATH.H
C:\CLASSIFIED FILES\VISUALSTUDIO\VC\INCLUDE\XTGMATH.H
C:\CLASSIFIED FILES\VISUALSTUDIO\VC\INCLUDE\XTR1COMMON
C:\CLASSIFIED FILES\VISUALSTUDIO\VC\INCLUDE\CSTDIO
C:\CLASSIFIED FILES\VISUALSTUDIO\VC\INCLUDE\STDIO.H
C:\CLASSIFIED FILES\VISUALSTUDIO\VC\INCLUDE\SWPRINTF.INL
C:\CLASSIFIED FILES\VISUALSTUDIO\VC\INCLUDE\CSTDLIB
C:\CLASSIFIED FILES\VISUALSTUDIO\VC\INCLUDE\STDLIB.H
C:\CLASSIFIED FILES\VISUALSTUDIO\VC\INCLUDE\STREAMBUF
C:\CLASSIFIED FILES\VISUALSTUDIO\VC\INCLUDE\XIOSBASE
C:\CLASSIFIED FILES\VISUALSTUDIO\VC\INCLUDE\XLOCALE
C:\CLASSIFIED FILES\VISUALSTUDIO\VC\INCLUDE\CSTRING
C:\CLASSIFIED FILES\VISUALSTUDIO\VC\INCLUDE\STRING.H
C:\CLASSIFIED FILES\VISUALSTUDIO\VC\INCLUDE\STDEXCEPT
C:\CLASSIFIED FILES\VISUALSTUDIO\VC\INCLUDE\EXCEPTION
C:\CLASSIFIED FILES\VISUALSTUDIO\VC\INCLUDE\XSTDDEF
C:\CLASSIFIED FILES\VISUALSTUDIO\VC\INCLUDE\CSTDDEF
C:\CLASSIFIED FILES\VISUALSTUDIO\VC\INCLUDE\STDDEF.H
C:\CLASSIFIED FILES\VISUALSTUDIO\VC\INCLUDE\INITIALIZER_LIST
C:\CLASSIFIED FILES\VISUALSTUDIO\VC\INCLUDE\EH.H
C:\CLASSIFIED FILES\VISUALSTUDIO\VC\INCLUDE\MALLOC.H
C:\CLASSIFIED FILES\VISUALSTUDIO\VC\INCLUDE\XSTRING
C:\CLASSIFIED FILES\VISUALSTUDIO\VC\INCLUDE\XMEMORY0
C:\CLASSIFIED FILES\VISUALSTUDIO\VC\INCLUDE\LIMITS
C:\CLASSIFIED FILES\VISUALSTUDIO\VC\INCLUDE\YMATH.H
C:\CLASSIFIED FILES\VISUALSTUDIO\VC\INCLUDE\CFLOAT
C:\CLASSIFIED FILES\VISUALSTUDIO\VC\INCLUDE\FLOAT.H
C:\CLASSIFIED FILES\VISUALSTUDIO\VC\INCLUDE\CRTWRN.H
C:\CLASSIFIED FILES\VISUALSTUDIO\VC\INCLUDE\CWCHAR
C:\CLASSIFIED FILES\VISUALSTUDIO\VC\INCLUDE\WCHAR.H
C:\CLASSIFIED FILES\VISUALSTUDIO\VC\INCLUDE\WTIME.INL
C:\CLASSIFIED FILES\VISUALSTUDIO\VC\INCLUDE\NEW
C:\CLASSIFIED FILES\VISUALSTUDIO\VC\INCLUDE\XUTILITY
C:\CLASSIFIED FILES\VISUALSTUDIO\VC\INCLUDE\UTILITY
C:\CLASSIFIED FILES\VISUALSTUDIO\VC\INCLUDE\IOSFWD
C:\CLASSIFIED FILES\VISUALSTUDIO\VC\INCLUDE\CRTDBG.H
C:\CLASSIFIED FILES\VISUALSTUDIO\VC\INCLUDE\TYPE_TRAITS
C:\CLASSIFIED FILES\VISUALSTUDIO\VC\INCLUDE\XREFWRAP
C:\CLASSIFIED FILES\VISUALSTUDIO\VC\INCLUDE\XATOMIC0.H
C:\CLASSIFIED FILES\VISUALSTUDIO\VC\INCLUDE\INTRIN.H
C:\CLASSIFIED FILES\VISUALSTUDIO\VC\INCLUDE\SETJMP.H
C:\CLASSIFIED FILES\VISUALSTUDIO\VC\INCLUDE\IMMINTRIN.H
C:\CLASSIFIED FILES\VISUALSTUDIO\VC\INCLUDE\WMMINTRIN.H
C:\CLASSIFIED FILES\VISUALSTUDIO\VC\INCLUDE\NMMINTRIN.H
C:\CLASSIFIED FILES\VISUALSTUDIO\VC\INCLUDE\SMMINTRIN.H
C:\CLASSIFIED FILES\VISUALSTUDIO\VC\INCLUDE\TMMINTRIN.H
C:\CLASSIFIED FILES\VISUALSTUDIO\VC\INCLUDE\PMMINTRIN.H
C:\CLASSIFIED FILES\VISUALSTUDIO\VC\INCLUDE\EMMINTRIN.H
C:\CLASSIFIED FILES\VISUALSTUDIO\VC\INCLUDE\XMMINTRIN.H
C:\CLASSIFIED FILES\VISUALSTUDIO\VC\INCLUDE\MMINTRIN.H
C:\CLASSIFIED FILES\VISUALSTUDIO\VC\INCLUDE\AMMINTRIN.H
C:\CLASSIFIED FILES\VISUALSTUDIO\VC\INCLUDE\MM3DNOW.H
C:\CLASSIFIED FILES\VISUALSTUDIO\VC\INCLUDE\TYPEINFO
C:\CLASSIFIED FILES\VISUALSTUDIO\VC\INCLUDE\XLOCINFO
C:\CLASSIFIED FILES\VISUALSTUDIO\VC\INCLUDE\XLOCINFO.H
C:\CLASSIFIED FILES\VISUALSTUDIO\VC\INCLUDE\CTYPE.H
C:\CLASSIFIED FILES\VISUALSTUDIO\VC\INCLUDE\LOCALE.H
C:\CLASSIFIED FILES\VISUALSTUDIO\VC\INCLUDE\XDEBUG
C:\CLASSIFIED FILES\VISUALSTUDIO\VC\INCLUDE\XMEMORY
C:\CLASSIFIED FILES\VISUALSTUDIO\VC\INCLUDE\XFACET
C:\CLASSIFIED FILES\VISUALSTUDIO\VC\INCLUDE\SYSTEM_ERROR
C:\CLASSIFIED FILES\VISUALSTUDIO\VC\INCLUDE\CERRNO
C:\CLASSIFIED FILES\VISUALSTUDIO\VC\INCLUDE\ERRNO.H
C:\CLASSIFIED FILES\VISUALSTUDIO\VC\INCLUDE\SHARE.H
C:\CLASSIFIED FILES\VISUALSTUDIO\VC\INCLUDE\IOSTREAM
D:\PROJECTS\COLLISION-PROGRAM\DEPS\INCLUDE\SDL\SDL.H
D:\PROJECTS\COLLISION-PROGRAM\DEPS\INCLUDE\SDL\SDL_MAIN.H
D:\PROJECTS\COLLISION-PROGRAM\DEPS\INCLUDE\SDL\SDL_STDINC.H
D:\PROJECTS\COLLISION-PROGRAM\DEPS\INCLUDE\SDL\SDL_CONFIG.H
D:\PROJECTS\COLLISION-PROGRAM\DEPS\INCLUDE\SDL\SDL_PLATFORM.H
C:\PROGRAM FILES (X86)\WINDOWS KITS\8.1\INCLUDE\SHARED\WINAPIFAMILY.H
D:\PROJECTS\COLLISION-PROGRAM\DEPS\INCLUDE\SDL\BEGIN_CODE.H
D:\PROJECTS\COLLISION-PROGRAM\DEPS\INCLUDE\SDL\CLOSE_CODE.H
C:\CLASSIFIED FILES\VISUALSTUDIO\VC\INCLUDE\STDARG.H
D:\PROJECTS\COLLISION-PROGRAM\DEPS\INCLUDE\SDL\SDL_ASSERT.H
D:\PROJECTS\COLLISION-PROGRAM\DEPS\INCLUDE\SDL\SDL_ATOMIC.H
D:\PROJECTS\COLLISION-PROGRAM\DEPS\INCLUDE\SDL\SDL_AUDIO.H
D:\PROJECTS\COLLISION-PROGRAM\DEPS\INCLUDE\SDL\SDL_ERROR.H
D:\PROJECTS\COLLISION-PROGRAM\DEPS\INCLUDE\SDL\SDL_ENDIAN.H
D:\PROJECTS\COLLISION-PROGRAM\DEPS\INCLUDE\SDL\SDL_MUTEX.H
D:\PROJECTS\COLLISION-PROGRAM\DEPS\INCLUDE\SDL\SDL_THREAD.H
C:\CLASSIFIED FILES\VISUALSTUDIO\VC\INCLUDE\PROCESS.H
D:\PROJECTS\COLLISION-PROGRAM\DEPS\INCLUDE\SDL\SDL_RWOPS.H
D:\PROJECTS\COLLISION-PROGRAM\DEPS\INCLUDE\SDL\SDL_CLIPBOARD.H
D:\PROJECTS\COLLISION-PROGRAM\DEPS\INCLUDE\SDL\SDL_CPUINFO.H
D:\PROJECTS\COLLISION-PROGRAM\DEPS\INCLUDE\SDL\SDL_EVENTS.H
D:\PROJECTS\COLLISION-PROGRAM\DEPS\INCLUDE\SDL\SDL_VIDEO.H
D:\PROJECTS\COLLISION-PROGRAM\DEPS\INCLUDE\SDL\SDL_PIXELS.H
D:\PROJECTS\COLLISION-PROGRAM\DEPS\INCLUDE\SDL\SDL_RECT.H
D:\PROJECTS\COLLISION-PROGRAM\DEPS\INCLUDE\SDL\SDL_SURFACE.H
D:\PROJECTS\COLLISION-PROGRAM\DEPS\INCLUDE\SDL\SDL_BLENDMODE.H
D:\PROJECTS\COLLISION-PROGRAM\DEPS\INCLUDE\SDL\SDL_KEYBOARD.H
D:\PROJECTS\COLLISION-PROGRAM\DEPS\INCLUDE\SDL\SDL_KEYCODE.H
D:\PROJECTS\COLLISION-PROGRAM\DEPS\INCLUDE\SDL\SDL_SCANCODE.H
D:\PROJECTS\COLLISION-PROGRAM\DEPS\INCLUDE\SDL\SDL_MOUSE.H
D:\PROJECTS\COLLISION-PROGRAM\DEPS\INCLUDE\SDL\SDL_JOYSTICK.H
D:\PROJECTS\COLLISION-PROGRAM\DEPS\INCLUDE\SDL\SDL_GAMECONTROLLER.H
D:\PROJECTS\COLLISION-PROGRAM\DEPS\INCLUDE\SDL\SDL_QUIT.H
D:\PROJECTS\COLLISION-PROGRAM\DEPS\INCLUDE\SDL\SDL_GESTURE.H
D:\PROJECTS\COLLISION-PROGRAM\DEPS\INCLUDE\SDL\SDL_TOUCH.H
D:\PROJECTS\COLLISION-PROGRAM\DEPS\INCLUDE\SDL\SDL_FILESYSTEM.H
D:\PROJECTS\COLLISION-PROGRAM\DEPS\INCLUDE\SDL\SDL_HAPTIC.H
D:\PROJECTS\COLLISION-PROGRAM\DEPS\INCLUDE\SDL\SDL_HINTS.H
D:\PROJECTS\COLLISION-PROGRAM\DEPS\INCLUDE\SDL\SDL_LOADSO.H
D:\PROJECTS\COLLISION-PROGRAM\DEPS\INCLUDE\SDL\SDL_LOG.H
D:\PROJECTS\COLLISION-PROGRAM\DEPS\INCLUDE\SDL\SDL_MESSAGEBOX.H
D:\PROJECTS\COLLISION-PROGRAM\DEPS\INCLUDE\SDL\SDL_POWER.H
D:\PROJECTS\COLLISION-PROGRAM\DEPS\INCLUDE\SDL\SDL_RENDER.H
D:\PROJECTS\COLLISION-PROGRAM\DEPS\INCLUDE\SDL\SDL_SYSTEM.H
D:\PROJECTS\COLLISION-PROGRAM\DEPS\INCLUDE\SDL\SDL_TIMER.H
D:\PROJECTS\COLLISION-PROGRAM\DEPS\INCLUDE\SDL\SDL_VERSION.H
C:\CLASSIFIED FILES\VISUALSTUDIO\VC\INCLUDE\VECTOR
D:\PROJECTS\COLLISION-PROGRAM\DEPS\INCLUDE\GL\GLEW.H
C:\PROGRAM FILES (X86)\WINDOWS KITS\8.1\INCLUDE\UM\GL\GLU.H
C:\PROGRAM FILES (X86)\WINDOWS KITS\8.1\INCLUDE\UM\GL\GL.H
D:\PROJECTS\COLLISION-PROGRAM\COLLISIONSAMPLE\GLSLPROGRAM.H
C:\CLASSIFIED FILES\VISUALSTUDIO\VC\INCLUDE\FSTREAM
D:\PROJECTS\COLLISION-PROGRAM\COLLISIONSAMPLE\BASICSHAPE.H
D:\PROJECTS\COLLISION-PROGRAM\COLLISIONSAMPLE\VERTEX.H
D:\PROJECTS\COLLISION-PROGRAM\COLLISIONSAMPLE\CIRCLE.H
C:\CLASSIFIED FILES\VISUALSTUDIO\VC\BIN\1033\CLUI.DLL
C:\WINDOWS\GLOBALIZATION\SORTING\SORTDEFAULT.NLS
C:\WINDOWS\SYSTEM32\TZRES.DLL
^D:\PROJECTS\COLLISION-PROGRAM\COLLISIONSAMPLE\GLSLPROGRAM.CPP
D:\PROJECTS\COLLISION-PROGRAM\COLLISIONSAMPLE\GLSLPROGRAM.H
C:\CLASSIFIED FILES\VISUALSTUDIO\VC\INCLUDE\STRING
C:\CLASSIFIED FILES\VISUALSTUDIO\VC\INCLUDE\ITERATOR
C:\CLASSIFIED FILES\VISUALSTUDIO\VC\INCLUDE\ISTREAM
C:\CLASSIFIED FILES\VISUALSTUDIO\VC\INCLUDE\OSTREAM
C:\CLASSIFIED FILES\VISUALSTUDIO\VC\INCLUDE\IOS
C:\CLASSIFIED FILES\VISUALSTUDIO\VC\INCLUDE\XLOCNUM
C:\CLASSIFIED FILES\VISUALSTUDIO\VC\INCLUDE\CLIMITS
C:\CLASSIFIED FILES\VISUALSTUDIO\VC\INCLUDE\YVALS.H
C:\CLASSIFIED FILES\VISUALSTUDIO\VC\INCLUDE\XKEYCHECK.H
C:\CLASSIFIED FILES\VISUALSTUDIO\VC\INCLUDE\CRTDEFS.H
C:\CLASSIFIED FILES\VISUALSTUDIO\VC\INCLUDE\SAL.H
C:\CLASSIFIED FILES\VISUALSTUDIO\VC\INCLUDE\CONCURRENCYSAL.H
C:\CLASSIFIED FILES\VISUALSTUDIO\VC\INCLUDE\VADEFS.H
C:\CLASSIFIED FILES\VISUALSTUDIO\VC\INCLUDE\USE_ANSI.H
C:\CLASSIFIED FILES\VISUALSTUDIO\VC\INCLUDE\LIMITS.H
C:\CLASSIFIED FILES\VISUALSTUDIO\VC\INCLUDE\CMATH
C:\CLASSIFIED FILES\VISUALSTUDIO\VC\INCLUDE\MATH.H
C:\CLASSIFIED FILES\VISUALSTUDIO\VC\INCLUDE\XTGMATH.H
C:\CLASSIFIED FILES\VISUALSTUDIO\VC\INCLUDE\XTR1COMMON
C:\CLASSIFIED FILES\VISUALSTUDIO\VC\INCLUDE\CSTDIO
C:\CLASSIFIED FILES\VISUALSTUDIO\VC\INCLUDE\STDIO.H
C:\CLASSIFIED FILES\VISUALSTUDIO\VC\INCLUDE\SWPRINTF.INL
C:\CLASSIFIED FILES\VISUALSTUDIO\VC\INCLUDE\CSTDLIB
C:\CLASSIFIED FILES\VISUALSTUDIO\VC\INCLUDE\STDLIB.H
C:\CLASSIFIED FILES\VISUALSTUDIO\VC\INCLUDE\STREAMBUF
C:\CLASSIFIED FILES\VISUALSTUDIO\VC\INCLUDE\XIOSBASE
C:\CLASSIFIED FILES\VISUALSTUDIO\VC\INCLUDE\XLOCALE
C:\CLASSIFIED FILES\VISUALSTUDIO\VC\INCLUDE\CSTRING
C:\CLASSIFIED FILES\VISUALSTUDIO\VC\INCLUDE\STRING.H
C:\CLASSIFIED FILES\VISUALSTUDIO\VC\INCLUDE\STDEXCEPT
C:\CLASSIFIED FILES\VISUALSTUDIO\VC\INCLUDE\EXCEPTION
C:\CLASSIFIED FILES\VISUALSTUDIO\VC\INCLUDE\XSTDDEF
C:\CLASSIFIED FILES\VISUALSTUDIO\VC\INCLUDE\CSTDDEF
C:\CLASSIFIED FILES\VISUALSTUDIO\VC\INCLUDE\STDDEF.H
C:\CLASSIFIED FILES\VISUALSTUDIO\VC\INCLUDE\INITIALIZER_LIST
C:\CLASSIFIED FILES\VISUALSTUDIO\VC\INCLUDE\EH.H
C:\CLASSIFIED FILES\VISUALSTUDIO\VC\INCLUDE\MALLOC.H
C:\CLASSIFIED FILES\VISUALSTUDIO\VC\INCLUDE\XSTRING
C:\CLASSIFIED FILES\VISUALSTUDIO\VC\INCLUDE\XMEMORY0
C:\CLASSIFIED FILES\VISUALSTUDIO\VC\INCLUDE\LIMITS
C:\CLASSIFIED FILES\VISUALSTUDIO\VC\INCLUDE\YMATH.H
C:\CLASSIFIED FILES\VISUALSTUDIO\VC\INCLUDE\CFLOAT
C:\CLASSIFIED FILES\VISUALSTUDIO\VC\INCLUDE\FLOAT.H
C:\CLASSIFIED FILES\VISUALSTUDIO\VC\INCLUDE\CRTWRN.H
C:\CLASSIFIED FILES\VISUALSTUDIO\VC\INCLUDE\CWCHAR
C:\CLASSIFIED FILES\VISUALSTUDIO\VC\INCLUDE\WCHAR.H
C:\CLASSIFIED FILES\VISUALSTUDIO\VC\INCLUDE\WTIME.INL
C:\CLASSIFIED FILES\VISUALSTUDIO\VC\INCLUDE\NEW
C:\CLASSIFIED FILES\VISUALSTUDIO\VC\INCLUDE\XUTILITY
C:\CLASSIFIED FILES\VISUALSTUDIO\VC\INCLUDE\UTILITY
C:\CLASSIFIED FILES\VISUALSTUDIO\VC\INCLUDE\IOSFWD
C:\CLASSIFIED FILES\VISUALSTUDIO\VC\INCLUDE\CRTDBG.H
C:\CLASSIFIED FILES\VISUALSTUDIO\VC\INCLUDE\TYPE_TRAITS
C:\CLASSIFIED FILES\VISUALSTUDIO\VC\INCLUDE\XREFWRAP
C:\CLASSIFIED FILES\VISUALSTUDIO\VC\INCLUDE\XATOMIC0.H
C:\CLASSIFIED FILES\VISUALSTUDIO\VC\INCLUDE\INTRIN.H
C:\CLASSIFIED FILES\VISUALSTUDIO\VC\INCLUDE\SETJMP.H
C:\CLASSIFIED FILES\VISUALSTUDIO\VC\INCLUDE\IMMINTRIN.H
C:\CLASSIFIED FILES\VISUALSTUDIO\VC\INCLUDE\WMMINTRIN.H
C:\CLASSIFIED FILES\VISUALSTUDIO\VC\INCLUDE\NMMINTRIN.H
C:\CLASSIFIED FILES\VISUALSTUDIO\VC\INCLUDE\SMMINTRIN.H
C:\CLASSIFIED FILES\VISUALSTUDIO\VC\INCLUDE\TMMINTRIN.H
C:\CLASSIFIED FILES\VISUALSTUDIO\VC\INCLUDE\PMMINTRIN.H
C:\CLASSIFIED FILES\VISUALSTUDIO\VC\INCLUDE\EMMINTRIN.H
C:\CLASSIFIED FILES\VISUALSTUDIO\VC\INCLUDE\XMMINTRIN.H
C:\CLASSIFIED FILES\VISUALSTUDIO\VC\INCLUDE\MMINTRIN.H
C:\CLASSIFIED FILES\VISUALSTUDIO\VC\INCLUDE\AMMINTRIN.H
C:\CLASSIFIED FILES\VISUALSTUDIO\VC\INCLUDE\MM3DNOW.H
C:\CLASSIFIED FILES\VISUALSTUDIO\VC\INCLUDE\TYPEINFO
C:\CLASSIFIED FILES\VISUALSTUDIO\VC\INCLUDE\XLOCINFO
C:\CLASSIFIED FILES\VISUALSTUDIO\VC\INCLUDE\XLOCINFO.H
C:\CLASSIFIED FILES\VISUALSTUDIO\VC\INCLUDE\CTYPE.H
C:\CLASSIFIED FILES\VISUALSTUDIO\VC\INCLUDE\LOCALE.H
C:\CLASSIFIED FILES\VISUALSTUDIO\VC\INCLUDE\XDEBUG
C:\CLASSIFIED FILES\VISUALSTUDIO\VC\INCLUDE\XMEMORY
C:\CLASSIFIED FILES\VISUALSTUDIO\VC\INCLUDE\XFACET
C:\CLASSIFIED FILES\VISUALSTUDIO\VC\INCLUDE\SYSTEM_ERROR
C:\CLASSIFIED FILES\VISUALSTUDIO\VC\INCLUDE\CERRNO
C:\CLASSIFIED FILES\VISUALSTUDIO\VC\INCLUDE\ERRNO.H
C:\CLASSIFIED FILES\VISUALSTUDIO\VC\INCLUDE\SHARE.H
D:\PROJECTS\COLLISION-PROGRAM\DEPS\INCLUDE\GL\GLEW.H
C:\PROGRAM FILES (X86)\WINDOWS KITS\8.1\INCLUDE\UM\GL\GLU.H
C:\PROGRAM FILES (X86)\WINDOWS KITS\8.1\INCLUDE\SHARED\WINAPIFAMILY.H
C:\PROGRAM FILES (X86)\WINDOWS KITS\8.1\INCLUDE\UM\GL\GL.H
C:\CLASSIFIED FILES\VISUALSTUDIO\VC\INCLUDE\FSTREAM
C:\CLASSIFIED FILES\VISUALSTUDIO\VC\INCLUDE\VECTOR
D:\PROJECTS\COLLISION-PROGRAM\COLLISIONSAMPLE\FATALERROR.H
C:\CLASSIFIED FILES\VISUALSTUDIO\VC\INCLUDE\IOSTREAM
D:\PROJECTS\COLLISION-PROGRAM\DEPS\INCLUDE\SDL\SDL.H
D:\PROJECTS\COLLISION-PROGRAM\DEPS\INCLUDE\SDL\SDL_MAIN.H
D:\PROJECTS\COLLISION-PROGRAM\DEPS\INCLUDE\SDL\SDL_STDINC.H
D:\PROJECTS\COLLISION-PROGRAM\DEPS\INCLUDE\SDL\SDL_CONFIG.H
D:\PROJECTS\COLLISION-PROGRAM\DEPS\INCLUDE\SDL\SDL_PLATFORM.H
D:\PROJECTS\COLLISION-PROGRAM\DEPS\INCLUDE\SDL\BEGIN_CODE.H
D:\PROJECTS\COLLISION-PROGRAM\DEPS\INCLUDE\SDL\CLOSE_CODE.H
C:\CLASSIFIED FILES\VISUALSTUDIO\VC\INCLUDE\STDARG.H
D:\PROJECTS\COLLISION-PROGRAM\DEPS\INCLUDE\SDL\SDL_ASSERT.H
D:\PROJECTS\COLLISION-PROGRAM\DEPS\INCLUDE\SDL\SDL_ATOMIC.H
D:\PROJECTS\COLLISION-PROGRAM\DEPS\INCLUDE\SDL\SDL_AUDIO.H
D:\PROJECTS\COLLISION-PROGRAM\DEPS\INCLUDE\SDL\SDL_ERROR.H
D:\PROJECTS\COLLISION-PROGRAM\DEPS\INCLUDE\SDL\SDL_ENDIAN.H
D:\PROJECTS\COLLISION-PROGRAM\DEPS\INCLUDE\SDL\SDL_MUTEX.H
D:\PROJECTS\COLLISION-PROGRAM\DEPS\INCLUDE\SDL\SDL_THREAD.H
C:\CLASSIFIED FILES\VISUALSTUDIO\VC\INCLUDE\PROCESS.H
D:\PROJECTS\COLLISION-PROGRAM\DEPS\INCLUDE\SDL\SDL_RWOPS.H
D:\PROJECTS\COLLISION-PROGRAM\DEPS\INCLUDE\SDL\SDL_CLIPBOARD.H
D:\PROJECTS\COLLISION-PROGRAM\DEPS\INCLUDE\SDL\SDL_CPUINFO.H
D:\PROJECTS\COLLISION-PROGRAM\DEPS\INCLUDE\SDL\SDL_EVENTS.H
D:\PROJECTS\COLLISION-PROGRAM\DEPS\INCLUDE\SDL\SDL_VIDEO.H
D:\PROJECTS\COLLISION-PROGRAM\DEPS\INCLUDE\SDL\SDL_PIXELS.H
D:\PROJECTS\COLLISION-PROGRAM\DEPS\INCLUDE\SDL\SDL_RECT.H
D:\PROJECTS\COLLISION-PROGRAM\DEPS\INCLUDE\SDL\SDL_SURFACE.H
D:\PROJECTS\COLLISION-PROGRAM\DEPS\INCLUDE\SDL\SDL_BLENDMODE.H
D:\PROJECTS\COLLISION-PROGRAM\DEPS\INCLUDE\SDL\SDL_KEYBOARD.H
D:\PROJECTS\COLLISION-PROGRAM\DEPS\INCLUDE\SDL\SDL_KEYCODE.H
D:\PROJECTS\COLLISION-PROGRAM\DEPS\INCLUDE\SDL\SDL_SCANCODE.H
D:\PROJECTS\COLLISION-PROGRAM\DEPS\INCLUDE\SDL\SDL_MOUSE.H
D:\PROJECTS\COLLISION-PROGRAM\DEPS\INCLUDE\SDL\SDL_JOYSTICK.H
D:\PROJECTS\COLLISION-PROGRAM\DEPS\INCLUDE\SDL\SDL_GAMECONTROLLER.H
D:\PROJECTS\COLLISION-PROGRAM\DEPS\INCLUDE\SDL\SDL_QUIT.H
D:\PROJECTS\COLLISION-PROGRAM\DEPS\INCLUDE\SDL\SDL_GESTURE.H
D:\PROJECTS\COLLISION-PROGRAM\DEPS\INCLUDE\SDL\SDL_TOUCH.H
D:\PROJECTS\COLLISION-PROGRAM\DEPS\INCLUDE\SDL\SDL_FILESYSTEM.H
D:\PROJECTS\COLLISION-PROGRAM\DEPS\INCLUDE\SDL\SDL_HAPTIC.H
D:\PROJECTS\COLLISION-PROGRAM\DEPS\INCLUDE\SDL\SDL_HINTS.H
D:\PROJECTS\COLLISION-PROGRAM\DEPS\INCLUDE\SDL\SDL_LOADSO.H
D:\PROJECTS\COLLISION-PROGRAM\DEPS\INCLUDE\SDL\SDL_LOG.H
D:\PROJECTS\COLLISION-PROGRAM\DEPS\INCLUDE\SDL\SDL_MESSAGEBOX.H
D:\PROJECTS\COLLISION-PROGRAM\DEPS\INCLUDE\SDL\SDL_POWER.H
D:\PROJECTS\COLLISION-PROGRAM\DEPS\INCLUDE\SDL\SDL_RENDER.H
D:\PROJECTS\COLLISION-PROGRAM\DEPS\INCLUDE\SDL\SDL_SYSTEM.H
D:\PROJECTS\COLLISION-PROGRAM\DEPS\INCLUDE\SDL\SDL_TIMER.H
D:\PROJECTS\COLLISION-PROGRAM\DEPS\INCLUDE\SDL\SDL_VERSION.H
^D:\PROJECTS\COLLISION-PROGRAM\COLLISIONSAMPLE\CIRCLE.CPP
D:\PROJECTS\COLLISION-PROGRAM\COLLISIONSAMPLE\CIRCLE.H
D:\PROJECTS\COLLISION-PROGRAM\DEPS\INCLUDE\GL\GLEW.H
C:\PROGRAM FILES (X86)\WINDOWS KITS\8.1\INCLUDE\UM\GL\GLU.H
C:\PROGRAM FILES (X86)\WINDOWS KITS\8.1\INCLUDE\SHARED\WINAPIFAMILY.H
C:\PROGRAM FILES (X86)\WINDOWS KITS\8.1\INCLUDE\UM\GL\GL.H
D:\PROJECTS\COLLISION-PROGRAM\COLLISIONSAMPLE\BASICSHAPE.H
C:\CLASSIFIED FILES\VISUALSTUDIO\VC\INCLUDE\IOSTREAM
C:\CLASSIFIED FILES\VISUALSTUDIO\VC\INCLUDE\ISTREAM
C:\CLASSIFIED FILES\VISUALSTUDIO\VC\INCLUDE\OSTREAM
C:\CLASSIFIED FILES\VISUALSTUDIO\VC\INCLUDE\IOS
C:\CLASSIFIED FILES\VISUALSTUDIO\VC\INCLUDE\XLOCNUM
C:\CLASSIFIED FILES\VISUALSTUDIO\VC\INCLUDE\CLIMITS
C:\CLASSIFIED FILES\VISUALSTUDIO\VC\INCLUDE\YVALS.H
C:\CLASSIFIED FILES\VISUALSTUDIO\VC\INCLUDE\XKEYCHECK.H
C:\CLASSIFIED FILES\VISUALSTUDIO\VC\INCLUDE\CRTDEFS.H
C:\CLASSIFIED FILES\VISUALSTUDIO\VC\INCLUDE\SAL.H
C:\CLASSIFIED FILES\VISUALSTUDIO\VC\INCLUDE\CONCURRENCYSAL.H
C:\CLASSIFIED FILES\VISUALSTUDIO\VC\INCLUDE\VADEFS.H
C:\CLASSIFIED FILES\VISUALSTUDIO\VC\INCLUDE\USE_ANSI.H
C:\CLASSIFIED FILES\VISUALSTUDIO\VC\INCLUDE\LIMITS.H
C:\CLASSIFIED FILES\VISUALSTUDIO\VC\INCLUDE\CMATH
C:\CLASSIFIED FILES\VISUALSTUDIO\VC\INCLUDE\MATH.H
C:\CLASSIFIED FILES\VISUALSTUDIO\VC\INCLUDE\XTGMATH.H
C:\CLASSIFIED FILES\VISUALSTUDIO\VC\INCLUDE\XTR1COMMON
C:\CLASSIFIED FILES\VISUALSTUDIO\VC\INCLUDE\CSTDIO
C:\CLASSIFIED FILES\VISUALSTUDIO\VC\INCLUDE\STDIO.H
C:\CLASSIFIED FILES\VISUALSTUDIO\VC\INCLUDE\SWPRINTF.INL
C:\CLASSIFIED FILES\VISUALSTUDIO\VC\INCLUDE\CSTDLIB
C:\CLASSIFIED FILES\VISUALSTUDIO\VC\INCLUDE\STDLIB.H
C:\CLASSIFIED FILES\VISUALSTUDIO\VC\INCLUDE\STREAMBUF
C:\CLASSIFIED FILES\VISUALSTUDIO\VC\INCLUDE\XIOSBASE
C:\CLASSIFIED FILES\VISUALSTUDIO\VC\INCLUDE\XLOCALE
C:\CLASSIFIED FILES\VISUALSTUDIO\VC\INCLUDE\CSTRING
C:\CLASSIFIED FILES\VISUALSTUDIO\VC\INCLUDE\STRING.H
C:\CLASSIFIED FILES\VISUALSTUDIO\VC\INCLUDE\STDEXCEPT
C:\CLASSIFIED FILES\VISUALSTUDIO\VC\INCLUDE\EXCEPTION
C:\CLASSIFIED FILES\VISUALSTUDIO\VC\INCLUDE\XSTDDEF
C:\CLASSIFIED FILES\VISUALSTUDIO\VC\INCLUDE\CSTDDEF
C:\CLASSIFIED FILES\VISUALSTUDIO\VC\INCLUDE\STDDEF.H
C:\CLASSIFIED FILES\VISUALSTUDIO\VC\INCLUDE\INITIALIZER_LIST
C:\CLASSIFIED FILES\VISUALSTUDIO\VC\INCLUDE\EH.H
C:\CLASSIFIED FILES\VISUALSTUDIO\VC\INCLUDE\MALLOC.H
C:\CLASSIFIED FILES\VISUALSTUDIO\VC\INCLUDE\XSTRING
C:\CLASSIFIED FILES\VISUALSTUDIO\VC\INCLUDE\XMEMORY0
C:\CLASSIFIED FILES\VISUALSTUDIO\VC\INCLUDE\LIMITS
C:\CLASSIFIED FILES\VISUALSTUDIO\VC\INCLUDE\YMATH.H
C:\CLASSIFIED FILES\VISUALSTUDIO\VC\INCLUDE\CFLOAT
C:\CLASSIFIED FILES\VISUALSTUDIO\VC\INCLUDE\FLOAT.H
C:\CLASSIFIED FILES\VISUALSTUDIO\VC\INCLUDE\CRTWRN.H
C:\CLASSIFIED FILES\VISUALSTUDIO\VC\INCLUDE\CWCHAR
C:\CLASSIFIED FILES\VISUALSTUDIO\VC\INCLUDE\WCHAR.H
C:\CLASSIFIED FILES\VISUALSTUDIO\VC\INCLUDE\WTIME.INL
C:\CLASSIFIED FILES\VISUALSTUDIO\VC\INCLUDE\NEW
C:\CLASSIFIED FILES\VISUALSTUDIO\VC\INCLUDE\XUTILITY
C:\CLASSIFIED FILES\VISUALSTUDIO\VC\INCLUDE\UTILITY
C:\CLASSIFIED FILES\VISUALSTUDIO\VC\INCLUDE\IOSFWD
C:\CLASSIFIED FILES\VISUALSTUDIO\VC\INCLUDE\CRTDBG.H
C:\CLASSIFIED FILES\VISUALSTUDIO\VC\INCLUDE\TYPE_TRAITS
C:\CLASSIFIED FILES\VISUALSTUDIO\VC\INCLUDE\XREFWRAP
C:\CLASSIFIED FILES\VISUALSTUDIO\VC\INCLUDE\XATOMIC0.H
C:\CLASSIFIED FILES\VISUALSTUDIO\VC\INCLUDE\INTRIN.H
C:\CLASSIFIED FILES\VISUALSTUDIO\VC\INCLUDE\SETJMP.H
C:\CLASSIFIED FILES\VISUALSTUDIO\VC\INCLUDE\IMMINTRIN.H
C:\CLASSIFIED FILES\VISUALSTUDIO\VC\INCLUDE\WMMINTRIN.H
C:\CLASSIFIED FILES\VISUALSTUDIO\VC\INCLUDE\NMMINTRIN.H
C:\CLASSIFIED FILES\VISUALSTUDIO\VC\INCLUDE\SMMINTRIN.H
C:\CLASSIFIED FILES\VISUALSTUDIO\VC\INCLUDE\TMMINTRIN.H
C:\CLASSIFIED FILES\VISUALSTUDIO\VC\INCLUDE\PMMINTRIN.H
C:\CLASSIFIED FILES\VISUALSTUDIO\VC\INCLUDE\EMMINTRIN.H
C:\CLASSIFIED FILES\VISUALSTUDIO\VC\INCLUDE\XMMINTRIN.H
C:\CLASSIFIED FILES\VISUALSTUDIO\VC\INCLUDE\MMINTRIN.H
C:\CLASSIFIED FILES\VISUALSTUDIO\VC\INCLUDE\AMMINTRIN.H
C:\CLASSIFIED FILES\VISUALSTUDIO\VC\INCLUDE\MM3DNOW.H
C:\CLASSIFIED FILES\VISUALSTUDIO\VC\INCLUDE\TYPEINFO
C:\CLASSIFIED FILES\VISUALSTUDIO\VC\INCLUDE\XLOCINFO
C:\CLASSIFIED FILES\VISUALSTUDIO\VC\INCLUDE\XLOCINFO.H
C:\CLASSIFIED FILES\VISUALSTUDIO\VC\INCLUDE\CTYPE.H
C:\CLASSIFIED FILES\VISUALSTUDIO\VC\INCLUDE\LOCALE.H
C:\CLASSIFIED FILES\VISUALSTUDIO\VC\INCLUDE\XDEBUG
C:\CLASSIFIED FILES\VISUALSTUDIO\VC\INCLUDE\XMEMORY
C:\CLASSIFIED FILES\VISUALSTUDIO\VC\INCLUDE\XFACET
C:\CLASSIFIED FILES\VISUALSTUDIO\VC\INCLUDE\SYSTEM_ERROR
C:\CLASSIFIED FILES\VISUALSTUDIO\VC\INCLUDE\CERRNO
C:\CLASSIFIED FILES\VISUALSTUDIO\VC\INCLUDE\ERRNO.H
C:\CLASSIFIED FILES\VISUALSTUDIO\VC\INCLUDE\SHARE.H
D:\PROJECTS\COLLISION-PROGRAM\COLLISIONSAMPLE\VERTEX.H
D:\PROJECTS\COLLISION-PROGRAM\COLLISIONSAMPLE\CIRCLEBASE.H
C:\CLASSIFIED FILES\VISUALSTUDIO\VC\INCLUDE\VECTOR
D:\PROJECTS\COLLISION-PROGRAM\DEPS\INCLUDE\SDL\SDL.H
D:\PROJECTS\COLLISION-PROGRAM\DEPS\INCLUDE\SDL\SDL_MAIN.H
D:\PROJECTS\COLLISION-PROGRAM\DEPS\INCLUDE\SDL\SDL_STDINC.H
D:\PROJECTS\COLLISION-PROGRAM\DEPS\INCLUDE\SDL\SDL_CONFIG.H
D:\PROJECTS\COLLISION-PROGRAM\DEPS\INCLUDE\SDL\SDL_PLATFORM.H
D:\PROJECTS\COLLISION-PROGRAM\DEPS\INCLUDE\SDL\BEGIN_CODE.H
D:\PROJECTS\COLLISION-PROGRAM\DEPS\INCLUDE\SDL\CLOSE_CODE.H
C:\CLASSIFIED FILES\VISUALSTUDIO\VC\INCLUDE\STDARG.H
D:\PROJECTS\COLLISION-PROGRAM\DEPS\INCLUDE\SDL\SDL_ASSERT.H
D:\PROJECTS\COLLISION-PROGRAM\DEPS\INCLUDE\SDL\SDL_ATOMIC.H
D:\PROJECTS\COLLISION-PROGRAM\DEPS\INCLUDE\SDL\SDL_AUDIO.H
D:\PROJECTS\COLLISION-PROGRAM\DEPS\INCLUDE\SDL\SDL_ERROR.H
D:\PROJECTS\COLLISION-PROGRAM\DEPS\INCLUDE\SDL\SDL_ENDIAN.H
D:\PROJECTS\COLLISION-PROGRAM\DEPS\INCLUDE\SDL\SDL_MUTEX.H
D:\PROJECTS\COLLISION-PROGRAM\DEPS\INCLUDE\SDL\SDL_THREAD.H
C:\CLASSIFIED FILES\VISUALSTUDIO\VC\INCLUDE\PROCESS.H
D:\PROJECTS\COLLISION-PROGRAM\DEPS\INCLUDE\SDL\SDL_RWOPS.H
D:\PROJECTS\COLLISION-PROGRAM\DEPS\INCLUDE\SDL\SDL_CLIPBOARD.H
D:\PROJECTS\COLLISION-PROGRAM\DEPS\INCLUDE\SDL\SDL_CPUINFO.H
D:\PROJECTS\COLLISION-PROGRAM\DEPS\INCLUDE\SDL\SDL_EVENTS.H
D:\PROJECTS\COLLISION-PROGRAM\DEPS\INCLUDE\SDL\SDL_VIDEO.H
D:\PROJECTS\COLLISION-PROGRAM\DEPS\INCLUDE\SDL\SDL_PIXELS.H
D:\PROJECTS\COLLISION-PROGRAM\DEPS\INCLUDE\SDL\SDL_RECT.H
D:\PROJECTS\COLLISION-PROGRAM\DEPS\INCLUDE\SDL\SDL_SURFACE.H
D:\PROJECTS\COLLISION-PROGRAM\DEPS\INCLUDE\SDL\SDL_BLENDMODE.H
D:\PROJECTS\COLLISION-PROGRAM\DEPS\INCLUDE\SDL\SDL_KEYBOARD.H
D:\PROJECTS\COLLISION-PROGRAM\DEPS\INCLUDE\SDL\SDL_KEYCODE.H
D:\PROJECTS\COLLISION-PROGRAM\DEPS\INCLUDE\SDL\SDL_SCANCODE.H
D:\PROJECTS\COLLISION-PROGRAM\DEPS\INCLUDE\SDL\SDL_MOUSE.H
D:\PROJECTS\COLLISION-PROGRAM\DEPS\INCLUDE\SDL\SDL_JOYSTICK.H
D:\PROJECTS\COLLISION-PROGRAM\DEPS\INCLUDE\SDL\SDL_GAMECONTROLLER.H
D:\PROJECTS\COLLISION-PROGRAM\DEPS\INCLUDE\SDL\SDL_QUIT.H
D:\PROJECTS\COLLISION-PROGRAM\DEPS\INCLUDE\SDL\SDL_GESTURE.H
D:\PROJECTS\COLLISION-PROGRAM\DEPS\INCLUDE\SDL\SDL_TOUCH.H
D:\PROJECTS\COLLISION-PROGRAM\DEPS\INCLUDE\SDL\SDL_FILESYSTEM.H
D:\PROJECTS\COLLISION-PROGRAM\DEPS\INCLUDE\SDL\SDL_HAPTIC.H
D:\PROJECTS\COLLISION-PROGRAM\DEPS\INCLUDE\SDL\SDL_HINTS.H
D:\PROJECTS\COLLISION-PROGRAM\DEPS\INCLUDE\SDL\SDL_LOADSO.H
D:\PROJECTS\COLLISION-PROGRAM\DEPS\INCLUDE\SDL\SDL_LOG.H
D:\PROJECTS\COLLISION-PROGRAM\DEPS\INCLUDE\SDL\SDL_MESSAGEBOX.H
D:\PROJECTS\COLLISION-PROGRAM\DEPS\INCLUDE\SDL\SDL_POWER.H
D:\PROJECTS\COLLISION-PROGRAM\DEPS\INCLUDE\SDL\SDL_RENDER.H
D:\PROJECTS\COLLISION-PROGRAM\DEPS\INCLUDE\SDL\SDL_SYSTEM.H
D:\PROJECTS\COLLISION-PROGRAM\DEPS\INCLUDE\SDL\SDL_TIMER.H
D:\PROJECTS\COLLISION-PROGRAM\DEPS\INCLUDE\SDL\SDL_VERSION.H
^D:\PROJECTS\COLLISION-PROGRAM\COLLISIONSAMPLE\BASICSHAPE.CPP
D:\PROJECTS\COLLISION-PROGRAM\COLLISIONSAMPLE\BASICSHAPE.H
C:\CLASSIFIED FILES\VISUALSTUDIO\VC\INCLUDE\IOSTREAM
C:\CLASSIFIED FILES\VISUALSTUDIO\VC\INCLUDE\ISTREAM
C:\CLASSIFIED FILES\VISUALSTUDIO\VC\INCLUDE\OSTREAM
C:\CLASSIFIED FILES\VISUALSTUDIO\VC\INCLUDE\IOS
C:\CLASSIFIED FILES\VISUALSTUDIO\VC\INCLUDE\XLOCNUM
C:\CLASSIFIED FILES\VISUALSTUDIO\VC\INCLUDE\CLIMITS
C:\CLASSIFIED FILES\VISUALSTUDIO\VC\INCLUDE\YVALS.H
C:\CLASSIFIED FILES\VISUALSTUDIO\VC\INCLUDE\XKEYCHECK.H
C:\CLASSIFIED FILES\VISUALSTUDIO\VC\INCLUDE\CRTDEFS.H
C:\CLASSIFIED FILES\VISUALSTUDIO\VC\INCLUDE\SAL.H
C:\CLASSIFIED FILES\VISUALSTUDIO\VC\INCLUDE\CONCURRENCYSAL.H
C:\CLASSIFIED FILES\VISUALSTUDIO\VC\INCLUDE\VADEFS.H
C:\CLASSIFIED FILES\VISUALSTUDIO\VC\INCLUDE\USE_ANSI.H
C:\CLASSIFIED FILES\VISUALSTUDIO\VC\INCLUDE\LIMITS.H
C:\CLASSIFIED FILES\VISUALSTUDIO\VC\INCLUDE\CMATH
C:\CLASSIFIED FILES\VISUALSTUDIO\VC\INCLUDE\MATH.H
C:\CLASSIFIED FILES\VISUALSTUDIO\VC\INCLUDE\XTGMATH.H
C:\CLASSIFIED FILES\VISUALSTUDIO\VC\INCLUDE\XTR1COMMON
C:\CLASSIFIED FILES\VISUALSTUDIO\VC\INCLUDE\CSTDIO
C:\CLASSIFIED FILES\VISUALSTUDIO\VC\INCLUDE\STDIO.H
C:\CLASSIFIED FILES\VISUALSTUDIO\VC\INCLUDE\SWPRINTF.INL
C:\CLASSIFIED FILES\VISUALSTUDIO\VC\INCLUDE\CSTDLIB
C:\CLASSIFIED FILES\VISUALSTUDIO\VC\INCLUDE\STDLIB.H
C:\CLASSIFIED FILES\VISUALSTUDIO\VC\INCLUDE\STREAMBUF
C:\CLASSIFIED FILES\VISUALSTUDIO\VC\INCLUDE\XIOSBASE
C:\CLASSIFIED FILES\VISUALSTUDIO\VC\INCLUDE\XLOCALE
C:\CLASSIFIED FILES\VISUALSTUDIO\VC\INCLUDE\CSTRING
C:\CLASSIFIED FILES\VISUALSTUDIO\VC\INCLUDE\STRING.H
C:\CLASSIFIED FILES\VISUALSTUDIO\VC\INCLUDE\STDEXCEPT
C:\CLASSIFIED FILES\VISUALSTUDIO\VC\INCLUDE\EXCEPTION
C:\CLASSIFIED FILES\VISUALSTUDIO\VC\INCLUDE\XSTDDEF
C:\CLASSIFIED FILES\VISUALSTUDIO\VC\INCLUDE\CSTDDEF
C:\CLASSIFIED FILES\VISUALSTUDIO\VC\INCLUDE\STDDEF.H
C:\CLASSIFIED FILES\VISUALSTUDIO\VC\INCLUDE\INITIALIZER_LIST
C:\CLASSIFIED FILES\VISUALSTUDIO\VC\INCLUDE\EH.H
C:\CLASSIFIED FILES\VISUALSTUDIO\VC\INCLUDE\MALLOC.H
C:\CLASSIFIED FILES\VISUALSTUDIO\VC\INCLUDE\XSTRING
C:\CLASSIFIED FILES\VISUALSTUDIO\VC\INCLUDE\XMEMORY0
C:\CLASSIFIED FILES\VISUALSTUDIO\VC\INCLUDE\LIMITS
C:\CLASSIFIED FILES\VISUALSTUDIO\VC\INCLUDE\YMATH.H
C:\CLASSIFIED FILES\VISUALSTUDIO\VC\INCLUDE\CFLOAT
C:\CLASSIFIED FILES\VISUALSTUDIO\VC\INCLUDE\FLOAT.H
C:\CLASSIFIED FILES\VISUALSTUDIO\VC\INCLUDE\CRTWRN.H
C:\CLASSIFIED FILES\VISUALSTUDIO\VC\INCLUDE\CWCHAR
C:\CLASSIFIED FILES\VISUALSTUDIO\VC\INCLUDE\WCHAR.H
C:\CLASSIFIED FILES\VISUALSTUDIO\VC\INCLUDE\WTIME.INL
C:\CLASSIFIED FILES\VISUALSTUDIO\VC\INCLUDE\NEW
C:\CLASSIFIED FILES\VISUALSTUDIO\VC\INCLUDE\XUTILITY
C:\CLASSIFIED FILES\VISUALSTUDIO\VC\INCLUDE\UTILITY
C:\CLASSIFIED FILES\VISUALSTUDIO\VC\INCLUDE\IOSFWD
C:\CLASSIFIED FILES\VISUALSTUDIO\VC\INCLUDE\CRTDBG.H
C:\CLASSIFIED FILES\VISUALSTUDIO\VC\INCLUDE\TYPE_TRAITS
C:\CLASSIFIED FILES\VISUALSTUDIO\VC\INCLUDE\XREFWRAP
C:\CLASSIFIED FILES\VISUALSTUDIO\VC\INCLUDE\XATOMIC0.H
C:\CLASSIFIED FILES\VISUALSTUDIO\VC\INCLUDE\INTRIN.H
C:\CLASSIFIED FILES\VISUALSTUDIO\VC\INCLUDE\SETJMP.H
C:\CLASSIFIED FILES\VISUALSTUDIO\VC\INCLUDE\IMMINTRIN.H
C:\CLASSIFIED FILES\VISUALSTUDIO\VC\INCLUDE\WMMINTRIN.H
C:\CLASSIFIED FILES\VISUALSTUDIO\VC\INCLUDE\NMMINTRIN.H
C:\CLASSIFIED FILES\VISUALSTUDIO\VC\INCLUDE\SMMINTRIN.H
C:\CLASSIFIED FILES\VISUALSTUDIO\VC\INCLUDE\TMMINTRIN.H
C:\CLASSIFIED FILES\VISUALSTUDIO\VC\INCLUDE\PMMINTRIN.H
C:\CLASSIFIED FILES\VISUALSTUDIO\VC\INCLUDE\EMMINTRIN.H
C:\CLASSIFIED FILES\VISUALSTUDIO\VC\INCLUDE\XMMINTRIN.H
C:\CLASSIFIED FILES\VISUALSTUDIO\VC\INCLUDE\MMINTRIN.H
C:\CLASSIFIED FILES\VISUALSTUDIO\VC\INCLUDE\AMMINTRIN.H
C:\CLASSIFIED FILES\VISUALSTUDIO\VC\INCLUDE\MM3DNOW.H
C:\CLASSIFIED FILES\VISUALSTUDIO\VC\INCLUDE\TYPEINFO
C:\CLASSIFIED FILES\VISUALSTUDIO\VC\INCLUDE\XLOCINFO
C:\CLASSIFIED FILES\VISUALSTUDIO\VC\INCLUDE\XLOCINFO.H
C:\CLASSIFIED FILES\VISUALSTUDIO\VC\INCLUDE\CTYPE.H
C:\CLASSIFIED FILES\VISUALSTUDIO\VC\INCLUDE\LOCALE.H
C:\CLASSIFIED FILES\VISUALSTUDIO\VC\INCLUDE\XDEBUG
C:\CLASSIFIED FILES\VISUALSTUDIO\VC\INCLUDE\XMEMORY
C:\CLASSIFIED FILES\VISUALSTUDIO\VC\INCLUDE\XFACET
C:\CLASSIFIED FILES\VISUALSTUDIO\VC\INCLUDE\SYSTEM_ERROR
C:\CLASSIFIED FILES\VISUALSTUDIO\VC\INCLUDE\CERRNO
C:\CLASSIFIED FILES\VISUALSTUDIO\VC\INCLUDE\ERRNO.H
C:\CLASSIFIED FILES\VISUALSTUDIO\VC\INCLUDE\SHARE.H
D:\PROJECTS\COLLISION-PROGRAM\COLLISIONSAMPLE\VERTEX.H
D:\PROJECTS\COLLISION-PROGRAM\DEPS\INCLUDE\GL\GLEW.H
C:\PROGRAM FILES (X86)\WINDOWS KITS\8.1\INCLUDE\UM\GL\GLU.H
C:\PROGRAM FILES (X86)\WINDOWS KITS\8.1\INCLUDE\SHARED\WINAPIFAMILY.H
C:\PROGRAM FILES (X86)\WINDOWS KITS\8.1\INCLUDE\UM\GL\GL.H
D:\PROJECTS\COLLISION-PROGRAM\DEPS\INCLUDE\SDL\SDL.H
D:\PROJECTS\COLLISION-PROGRAM\DEPS\INCLUDE\SDL\SDL_MAIN.H
D:\PROJECTS\COLLISION-PROGRAM\DEPS\INCLUDE\SDL\SDL_STDINC.H
D:\PROJECTS\COLLISION-PROGRAM\DEPS\INCLUDE\SDL\SDL_CONFIG.H
D:\PROJECTS\COLLISION-PROGRAM\DEPS\INCLUDE\SDL\SDL_PLATFORM.H
D:\PROJECTS\COLLISION-PROGRAM\DEPS\INCLUDE\SDL\BEGIN_CODE.H
D:\PROJECTS\COLLISION-PROGRAM\DEPS\INCLUDE\SDL\CLOSE_CODE.H
C:\CLASSIFIED FILES\VISUALSTUDIO\VC\INCLUDE\STDARG.H
D:\PROJECTS\COLLISION-PROGRAM\DEPS\INCLUDE\SDL\SDL_ASSERT.H
D:\PROJECTS\COLLISION-PROGRAM\DEPS\INCLUDE\SDL\SDL_ATOMIC.H
D:\PROJECTS\COLLISION-PROGRAM\DEPS\INCLUDE\SDL\SDL_AUDIO.H
D:\PROJECTS\COLLISION-PROGRAM\DEPS\INCLUDE\SDL\SDL_ERROR.H
D:\PROJECTS\COLLISION-PROGRAM\DEPS\INCLUDE\SDL\SDL_ENDIAN.H
D:\PROJECTS\COLLISION-PROGRAM\DEPS\INCLUDE\SDL\SDL_MUTEX.H
D:\PROJECTS\COLLISION-PROGRAM\DEPS\INCLUDE\SDL\SDL_THREAD.H
C:\CLASSIFIED FILES\VISUALSTUDIO\VC\INCLUDE\PROCESS.H
D:\PROJECTS\COLLISION-PROGRAM\DEPS\INCLUDE\SDL\SDL_RWOPS.H
D:\PROJECTS\COLLISION-PROGRAM\DEPS\INCLUDE\SDL\SDL_CLIPBOARD.H
D:\PROJECTS\COLLISION-PROGRAM\DEPS\INCLUDE\SDL\SDL_CPUINFO.H
D:\PROJECTS\COLLISION-PROGRAM\DEPS\INCLUDE\SDL\SDL_EVENTS.H
D:\PROJECTS\COLLISION-PROGRAM\DEPS\INCLUDE\SDL\SDL_VIDEO.H
D:\PROJECTS\COLLISION-PROGRAM\DEPS\INCLUDE\SDL\SDL_PIXELS.H
D:\PROJECTS\COLLISION-PROGRAM\DEPS\INCLUDE\SDL\SDL_RECT.H
D:\PROJECTS\COLLISION-PROGRAM\DEPS\INCLUDE\SDL\SDL_SURFACE.H
D:\PROJECTS\COLLISION-PROGRAM\DEPS\INCLUDE\SDL\SDL_BLENDMODE.H
D:\PROJECTS\COLLISION-PROGRAM\DEPS\INCLUDE\SDL\SDL_KEYBOARD.H
D:\PROJECTS\COLLISION-PROGRAM\DEPS\INCLUDE\SDL\SDL_KEYCODE.H
D:\PROJECTS\COLLISION-PROGRAM\DEPS\INCLUDE\SDL\SDL_SCANCODE.H
D:\PROJECTS\COLLISION-PROGRAM\DEPS\INCLUDE\SDL\SDL_MOUSE.H
D:\PROJECTS\COLLISION-PROGRAM\DEPS\INCLUDE\SDL\SDL_JOYSTICK.H
D:\PROJECTS\COLLISION-PROGRAM\DEPS\INCLUDE\SDL\SDL_GAMECONTROLLER.H
D:\PROJECTS\COLLISION-PROGRAM\DEPS\INCLUDE\SDL\SDL_QUIT.H
D:\PROJECTS\COLLISION-PROGRAM\DEPS\INCLUDE\SDL\SDL_GESTURE.H
D:\PROJECTS\COLLISION-PROGRAM\DEPS\INCLUDE\SDL\SDL_TOUCH.H
D:\PROJECTS\COLLISION-PROGRAM\DEPS\INCLUDE\SDL\SDL_FILESYSTEM.H
D:\PROJECTS\COLLISION-PROGRAM\DEPS\INCLUDE\SDL\SDL_HAPTIC.H
D:\PROJECTS\COLLISION-PROGRAM\DEPS\INCLUDE\SDL\SDL_HINTS.H
D:\PROJECTS\COLLISION-PROGRAM\DEPS\INCLUDE\SDL\SDL_LOADSO.H
D:\PROJECTS\COLLISION-PROGRAM\DEPS\INCLUDE\SDL\SDL_LOG.H
D:\PROJECTS\COLLISION-PROGRAM\DEPS\INCLUDE\SDL\SDL_MESSAGEBOX.H
D:\PROJECTS\COLLISION-PROGRAM\DEPS\INCLUDE\SDL\SDL_POWER.H
D:\PROJECTS\COLLISION-PROGRAM\DEPS\INCLUDE\SDL\SDL_RENDER.H
D:\PROJECTS\COLLISION-PROGRAM\DEPS\INCLUDE\SDL\SDL_SYSTEM.H
D:\PROJECTS\COLLISION-PROGRAM\DEPS\INCLUDE\SDL\SDL_TIMER.H
D:\PROJECTS\COLLISION-PROGRAM\DEPS\INCLUDE\SDL\SDL_VERSION.H
